Cecilia Vanlalpekhlui,PUC,B.A (Philosophy),9774410432
Rachel Lalremruati,PUC,B.Sc (Botany),9774269315
Christopher Lalromawia,PUC,B.Sc (Statistics),7085415863
Vanlalchhandami,PUC,B.Sc(Mathematics),7630010872
Lalneihmawii,PUC (2020)_,Mizo,7085507084
C. Ramdintluangi,PUC (2019),Mizo,8131990651
